{
	"process_id" : 3740,
	"version" : "2018.3.0f2",
	"app_path" : "C:/Program Files/Unity/Hub/Editor/2018.3.0f2/Editor/Unity.exe",
	"app_contents_path" : "C:/Program Files/Unity/Hub/Editor/2018.3.0f2/Editor/Data"
}